rvm
…
Bu veriseti, 1993 yılından bugüne kadar oynanan tüm uluslararası futbol maçlarına ilişkin bilgilerin yanı sıra, her takımın gücü, gerçek FIFA sıralamalarını, EA Sport FIFA video oyununa dayalı oyuncu güçlerine ilişkin verileri içermektedir.

Veriseti üzerinde select() fonksiyonu ile bir kaç özetleme uygulaması yapalım.

select(worldcup, tournament)

# A tibble: 23,921 × 1
   tournament                  
   <chr>                       
 1 FIFA World Cup qualification
 2 Friendly                    
 3 FIFA World Cup qualification
 4 Friendly                    
 5 FIFA World Cup qualification
 6 FIFA World Cup qualification
 7 Friendly                    
 8 Friendly                    
 9 Friendly                    
10 Friendly                    
# … with 23,911 more rows

Bir veya bir kaç değişken dışında geri kalan tüm değişkenleri seçmek için aşağıdaki kod kullanılır.

# city değişkeni (sütunu) hariç diğer değişkenlerin seçimi
select(worldcup, -city)

# A tibble: 23,921 × 24
   date       home_team  away_…¹ home_…² away_…³ home_…⁴ away_…⁵ home_…⁶ away_…⁷
   <date>     <chr>      <chr>   <chr>   <chr>     <dbl>   <dbl>   <dbl>   <dbl>
 1 1993-08-08 Bolivia    Uruguay South … South …      59      22       0       0
 2 1993-08-08 Brazil     Mexico  South … North …       8      14       0       0
 3 1993-08-08 Ecuador    Venezu… South … South …      35      94       0       0
 4 1993-08-08 Guinea     Sierra… Africa  Africa       65      86       0       0
 5 1993-08-08 Paraguay   Argent… South … South …      67       5       0       0
 6 1993-08-08 Peru       Colomb… South … South …      70      19       0       0
 7 1993-08-08 Zimbabwe   Eswati… Africa  Africa       50     102       0       0
 8 1993-08-09 Guinea     Sierra… Africa  Africa       65      86       0       0
 9 1993-08-11 Faroe Isl… Norway  Europe  Europe      111       9       0       0
10 1993-08-11 Sweden     Switze… Europe  Europe        4       3       0       0
# … with 23,911 more rows, 15 more variables: home_team_score <dbl>,
#   away_team_score <dbl>, tournament <chr>, country <chr>,
#   neutral_location <lgl>, shoot_out <chr>, home_team_result <chr>,
#   home_team_goalkeeper_score <dbl>, away_team_goalkeeper_score <dbl>,
#   home_team_mean_defense_score <dbl>, home_team_mean_offense_score <dbl>,
#   home_team_mean_midfield_score <dbl>, away_team_mean_defense_score <dbl>,
#   away_team_mean_offense_score <dbl>, away_team_mean_midfield_score <dbl>, …

# city ve date değişkeni (sütunu) hariç diğer değişkenlerin seçimi
select(worldcup, -c(date, city))

# A tibble: 23,921 × 23
   home_team     away_…¹ home_…² away_…³ home_…⁴ away_…⁵ home_…⁶ away_…⁷ home_…⁸
   <chr>         <chr>   <chr>   <chr>     <dbl>   <dbl>   <dbl>   <dbl>   <dbl>
 1 Bolivia       Uruguay South … South …      59      22       0       0       3
 2 Brazil        Mexico  South … North …       8      14       0       0       1
 3 Ecuador       Venezu… South … South …      35      94       0       0       5
 4 Guinea        Sierra… Africa  Africa       65      86       0       0       1
 5 Paraguay      Argent… South … South …      67       5       0       0       1
 6 Peru          Colomb… South … South …      70      19       0       0       0
 7 Zimbabwe      Eswati… Africa  Africa       50     102       0       0       2
 8 Guinea        Sierra… Africa  Africa       65      86       0       0       4
 9 Faroe Islands Norway  Europe  Europe      111       9       0       0       0
10 Sweden        Switze… Europe  Europe        4       3       0       0       1
# … with 23,911 more rows, 14 more variables: away_team_score <dbl>,
#   tournament <chr>, country <chr>, neutral_location <lgl>, shoot_out <chr>,
#   home_team_result <chr>, home_team_goalkeeper_score <dbl>,
#   away_team_goalkeeper_score <dbl>, home_team_mean_defense_score <dbl>,
#   home_team_mean_offense_score <dbl>, home_team_mean_midfield_score <dbl>,
#   away_team_mean_defense_score <dbl>, away_team_mean_offense_score <dbl>,
#   away_team_mean_midfield_score <dbl>, and abbreviated variable names …

Bir metinsel ifade içeren tüm değişkenleri seçmek için contains() fonksiyonu kullanılabilir.

select(worldcup, contains("fifa"))

# A tibble: 23,921 × 4
   home_team_fifa_rank away_team_fifa_rank home_team_total_fifa_points away_te…¹
                 <dbl>               <dbl>                       <dbl>     <dbl>
 1                  59                  22                           0         0
 2                   8                  14                           0         0
 3                  35                  94                           0         0
 4                  65                  86                           0         0
 5                  67                   5                           0         0
 6                  70                  19                           0         0
 7                  50                 102                           0         0
 8                  65                  86                           0         0
 9                 111                   9                           0         0
10                   4                   3                           0         0
# … with 23,911 more rows, and abbreviated variable name
#   ¹​away_team_total_fifa_points

Bir metinsel ifade ile başlayan tüm değişkenleri seçmek için starts_with() fonksiyonu, biten tüm değişkenleri seçmek için ise ends_with() fonksiyonu kullanılır.

select(worldcup, starts_with("home_team"))

# A tibble: 23,921 × 10
   home_team     home_…¹ home_…² home_…³ home_…⁴ home_…⁵ home_…⁶ home_…⁷ home_…⁸
   <chr>         <chr>     <dbl>   <dbl>   <dbl> <chr>     <dbl>   <dbl>   <dbl>
 1 Bolivia       South …      59       0       3 Win          NA      NA      NA
 2 Brazil        South …       8       0       1 Draw         NA      NA      NA
 3 Ecuador       South …      35       0       5 Win          NA      NA      NA
 4 Guinea        Africa       65       0       1 Win          NA      NA      NA
 5 Paraguay      South …      67       0       1 Lose         NA      NA      NA
 6 Peru          South …      70       0       0 Lose         NA      NA      NA
 7 Zimbabwe      Africa       50       0       2 Win          NA      NA      NA
 8 Guinea        Africa       65       0       4 Win          NA      NA      NA
 9 Faroe Islands Europe      111       0       0 Lose         NA      NA      NA
10 Sweden        Europe        4       0       1 Lose         NA      NA      NA
# … with 23,911 more rows, 1 more variable:
#   home_team_mean_midfield_score <dbl>, and abbreviated variable names
#   ¹​home_team_continent, ²​home_team_fifa_rank, ³​home_team_total_fifa_points,
#   ⁴​home_team_score, ⁵​home_team_result, ⁶​home_team_goalkeeper_score,
#   ⁷​home_team_mean_defense_score, ⁸​home_team_mean_offense_score

İlk üç sırada yer alan değişkenleri ya da belirli sıralarda yer alan değişkenleri seçmek için ise yol tercih edilebilir.

# İlk üç sıradaki değişkeni seçme işlemi
select(worldcup, 1:3)

# A tibble: 23,921 × 3
   date       home_team     away_team   
   <date>     <chr>         <chr>       
 1 1993-08-08 Bolivia       Uruguay     
 2 1993-08-08 Brazil        Mexico      
 3 1993-08-08 Ecuador       Venezuela   
 4 1993-08-08 Guinea        Sierra Leone
 5 1993-08-08 Paraguay      Argentina   
 6 1993-08-08 Peru          Colombia    
 7 1993-08-08 Zimbabwe      Eswatini    
 8 1993-08-09 Guinea        Sierra Leone
 9 1993-08-11 Faroe Islands Norway      
10 1993-08-11 Sweden        Switzerland 
# … with 23,911 more rows

# 2, 3, ve 7.sıralardaki değişkenleri seçme işlemi
select(worldcup, c(2, 3, 7))

# A tibble: 23,921 × 3
   home_team     away_team    away_team_fifa_rank
   <chr>         <chr>                      <dbl>
 1 Bolivia       Uruguay                       22
 2 Brazil        Mexico                        14
 3 Ecuador       Venezuela                     94
 4 Guinea        Sierra Leone                  86
 5 Paraguay      Argentina                      5
 6 Peru          Colombia                      19
 7 Zimbabwe      Eswatini                     102
 8 Guinea        Sierra Leone                  86
 9 Faroe Islands Norway                         9
10 Sweden        Switzerland                    3
# … with 23,911 more rows
…
Veriseti üzerinde filter() fonksiyonu ile bir kaç özetleme uygulaması yapalım.

# Türkiye'nin ev sahibi olarak oynadığı maçları filtreleme işlemi
filter(worldcup, home_team == "Turkey")

# A tibble: 156 × 25
   date       home_team away_t…¹ home_…² away_…³ home_…⁴ away_…⁵ home_…⁶ away_…⁷
   <date>     <chr>     <chr>    <chr>   <chr>     <dbl>   <dbl>   <dbl>   <dbl>
 1 1993-10-27 Turkey    Poland   Europe  Europe       67      23       0       0
 2 1993-11-10 Turkey    Norway   Europe  Europe       67       2       0       0
 3 1994-04-20 Turkey    Russia   Europe  Europe       57      12       0       0
 4 1994-10-12 Turkey    Iceland  Europe  Europe       39      37       0       0
 5 1994-12-14 Turkey    Switzer… Europe  Europe       48       7       0       0
 6 1995-02-15 Turkey    Romania  Europe  Europe       48      11       0       0
 7 1995-03-08 Turkey    Israel   Europe  Europe       49      40       0       0
 8 1995-03-29 Turkey    Sweden   Europe  Europe       49       4       0       0
 9 1995-08-30 Turkey    North M… Europe  Europe       31      99       0       0
10 1995-09-06 Turkey    Hungary  Europe  Europe       31      61       0       0
# … with 146 more rows, 16 more variables: home_team_score <dbl>,
#   away_team_score <dbl>, tournament <chr>, city <chr>, country <chr>,
#   neutral_location <lgl>, shoot_out <chr>, home_team_result <chr>,
#   home_team_goalkeeper_score <dbl>, away_team_goalkeeper_score <dbl>,
#   home_team_mean_defense_score <dbl>, home_team_mean_offense_score <dbl>,
#   home_team_mean_midfield_score <dbl>, away_team_mean_defense_score <dbl>,
#   away_team_mean_offense_score <dbl>, away_team_mean_midfield_score <dbl>, …

# Ev sahibi takımın üçten fazla gol attığı maçları filtreleme işlemi
filter(worldcup, home_team_score > 3)

# A tibble: 2,543 × 25
   date       home_team  away_…¹ home_…² away_…³ home_…⁴ away_…⁵ home_…⁶ away_…⁷
   <date>     <chr>      <chr>   <chr>   <chr>     <dbl>   <dbl>   <dbl>   <dbl>
 1 1993-08-08 Ecuador    Venezu… South … South …      35      94       0       0
 2 1993-08-09 Guinea     Sierra… Africa  Africa       65      86       0       0
 3 1993-08-22 Bolivia    Venezu… South … South …      59      94       0       0
 4 1993-08-25 Denmark    Lithua… Europe  Europe       10      84       0       0
 5 1993-08-29 Brazil     Bolivia South … South …       8      59       0       0
 6 1993-08-29 Colombia   Peru    South … South …      19      70       0       0
 7 1993-08-29 Uruguay    Venezu… South … South …      22      94       0       0
 8 1993-09-05 Brazil     Venezu… South … South …       8      94       0       0
 9 1993-09-17 Saudi Ara… Thaila… Asia    Asia         44      66       0       0
10 1993-09-25 Nigeria    Côte d… Africa  Africa       18      31       0       0
# … with 2,533 more rows, 16 more variables: home_team_score <dbl>,
#   away_team_score <dbl>, tournament <chr>, city <chr>, country <chr>,
#   neutral_location <lgl>, shoot_out <chr>, home_team_result <chr>,
#   home_team_goalkeeper_score <dbl>, away_team_goalkeeper_score <dbl>,
#   home_team_mean_defense_score <dbl>, home_team_mean_offense_score <dbl>,
#   home_team_mean_midfield_score <dbl>, away_team_mean_defense_score <dbl>,
#   away_team_mean_offense_score <dbl>, away_team_mean_midfield_score <dbl>, …
…
Eksik değerleri (NA: Non-available) filtreleyerek işlemlere devam etmek için filter() fonksiyonu içerisinde is.na() fonksiyonu ve değil mantıksal operatörü bir arada kullanılabilir.

filter(worldcup, !is.na(home_team_goalkeeper_score))

# A tibble: 8,379 × 25
   date       home_team  away_…¹ home_…² away_…³ home_…⁴ away_…⁵ home_…⁶ away_…⁷
   <date>     <chr>      <chr>   <chr>   <chr>     <dbl>   <dbl>   <dbl>   <dbl>
 1 2004-09-03 Netherlan… Liecht… Europe  Europe        6     152       0       0
 2 2004-09-03 Spain      Scotla… Europe  Europe        3      67       0       0
 3 2004-09-04 Austria    England Europe  Europe       90       7       0       0
 4 2004-09-04 Belgium    Lithua… Europe  Europe       29     118       0       0
 5 2004-09-04 Canada     Hondur… North … North …      99      47       0       0
 6 2004-09-04 Croatia    Hungary Europe  Europe       25      76       0       0
 7 2004-09-04 Denmark    Ukraine Europe  Europe       15      87       0       0
 8 2004-09-04 Estonia    Luxemb… Europe  Europe       81     157       0       0
 9 2004-09-04 Finland    Andorra Europe  Europe       53     148       0       0
10 2004-09-04 France     Israel  Europe  Europe        2      69       0       0
# … with 8,369 more rows, 16 more variables: home_team_score <dbl>,
#   away_team_score <dbl>, tournament <chr>, city <chr>, country <chr>,
#   neutral_location <lgl>, shoot_out <chr>, home_team_result <chr>,
#   home_team_goalkeeper_score <dbl>, away_team_goalkeeper_score <dbl>,
#   home_team_mean_defense_score <dbl>, home_team_mean_offense_score <dbl>,
#   home_team_mean_midfield_score <dbl>, away_team_mean_defense_score <dbl>,
#   away_team_mean_offense_score <dbl>, away_team_mean_midfield_score <dbl>, …
…
Verisetini group_by() fonksiyonu ile maçları ev sahibi takım ülkelerinin bulundukları kıtalara göre alt kümelere (gruplara) ayıralım.

group_by(worldcup, home_team_continent)

# A tibble: 23,921 × 25
# Groups:   home_team_continent [6]
   date       home_team  away_…¹ home_…² away_…³ home_…⁴ away_…⁵ home_…⁶ away_…⁷
   <date>     <chr>      <chr>   <chr>   <chr>     <dbl>   <dbl>   <dbl>   <dbl>
 1 1993-08-08 Bolivia    Uruguay South … South …      59      22       0       0
 2 1993-08-08 Brazil     Mexico  South … North …       8      14       0       0
 3 1993-08-08 Ecuador    Venezu… South … South …      35      94       0       0
 4 1993-08-08 Guinea     Sierra… Africa  Africa       65      86       0       0
 5 1993-08-08 Paraguay   Argent… South … South …      67       5       0       0
 6 1993-08-08 Peru       Colomb… South … South …      70      19       0       0
 7 1993-08-08 Zimbabwe   Eswati… Africa  Africa       50     102       0       0
 8 1993-08-09 Guinea     Sierra… Africa  Africa       65      86       0       0
 9 1993-08-11 Faroe Isl… Norway  Europe  Europe      111       9       0       0
10 1993-08-11 Sweden     Switze… Europe  Europe        4       3       0       0
# … with 23,911 more rows, 16 more variables: home_team_score <dbl>,
#   away_team_score <dbl>, tournament <chr>, city <chr>, country <chr>,
#   neutral_location <lgl>, shoot_out <chr>, home_team_result <chr>,
#   home_team_goalkeeper_score <dbl>, away_team_goalkeeper_score <dbl>,
#   home_team_mean_defense_score <dbl>, home_team_mean_offense_score <dbl>,
#   home_team_mean_midfield_score <dbl>, away_team_mean_defense_score <dbl>,
#   away_team_mean_offense_score <dbl>, away_team_mean_midfield_score <dbl>, …
…
Veriseti üzerinde mutate() fonksiyonu ile ev sahibi takımların ortalama defans skoruna oranla kaç gol yediklerini gösteren yeni bir değişken (sütun) oluşturalım.

worldcup2 <- mutate(worldcup, 
                    defans_skor_oranı = away_team_score / home_team_mean_defense_score)

select(worldcup2, c("home_team", "away_team", "defans_skor_oranı"))

# A tibble: 23,921 × 3
   home_team     away_team    defans_skor_oranı
   <chr>         <chr>                    <dbl>
 1 Bolivia       Uruguay                     NA
 2 Brazil        Mexico                      NA
 3 Ecuador       Venezuela                   NA
 4 Guinea        Sierra Leone                NA
 5 Paraguay      Argentina                   NA
 6 Peru          Colombia                    NA
 7 Zimbabwe      Eswatini                    NA
 8 Guinea        Sierra Leone                NA
 9 Faroe Islands Norway                      NA
10 Sweden        Switzerland                 NA
# … with 23,911 more rows

filter(worldcup2, !is.na(defans_skor_oranı))

# A tibble: 7,787 × 26
   date       home_team  away_…¹ home_…² away_…³ home_…⁴ away_…⁵ home_…⁶ away_…⁷
   <date>     <chr>      <chr>   <chr>   <chr>     <dbl>   <dbl>   <dbl>   <dbl>
 1 2004-09-03 Netherlan… Liecht… Europe  Europe        6     152       0       0
 2 2004-09-03 Spain      Scotla… Europe  Europe        3      67       0       0
 3 2004-09-04 Austria    England Europe  Europe       90       7       0       0
 4 2004-09-04 Belgium    Lithua… Europe  Europe       29     118       0       0
 5 2004-09-04 Burkina F… Uganda  Africa  Africa       83     102       0       0
 6 2004-09-04 Canada     Hondur… North … North …      99      47       0       0
 7 2004-09-04 Croatia    Hungary Europe  Europe       25      76       0       0
 8 2004-09-04 Denmark    Ukraine Europe  Europe       15      87       0       0
 9 2004-09-04 Finland    Andorra Europe  Europe       53     148       0       0
10 2004-09-04 France     Israel  Europe  Europe        2      69       0       0
# … with 7,777 more rows, 17 more variables: home_team_score <dbl>,
#   away_team_score <dbl>, tournament <chr>, city <chr>, country <chr>,
#   neutral_location <lgl>, shoot_out <chr>, home_team_result <chr>,
#   home_team_goalkeeper_score <dbl>, away_team_goalkeeper_score <dbl>,
#   home_team_mean_defense_score <dbl>, home_team_mean_offense_score <dbl>,
#   home_team_mean_midfield_score <dbl>, away_team_mean_defense_score <dbl>,
#   away_team_mean_offense_score <dbl>, away_team_mean_midfield_score <dbl>, …
…
Veriseti üzerinde arrange() fonksiyonu ile bir kaç özetleme uygulaması yapalım.

arrange(worldcup, home_team_fifa_rank)

# A tibble: 23,921 × 25
   date       home_team away_t…¹ home_…² away_…³ home_…⁴ away_…⁵ home_…⁶ away_…⁷
   <date>     <chr>     <chr>    <chr>   <chr>     <dbl>   <dbl>   <dbl>   <dbl>
 1 1994-03-23 Germany   Italy    Europe  Europe        1      11       0       0
 2 1994-05-04 Brazil    Iceland  South … Europe        1      43       0       0
 3 1994-06-17 Germany   Bolivia  Europe  South …       1      43       0       0
 4 1994-06-21 Germany   Spain    Europe  Europe        1       5       0       0
 5 1994-06-27 Germany   Korea R… Europe  Asia          1      37       0       0
 6 1994-07-02 Germany   Belgium  Europe  Europe        1      27       0       0
 7 1995-02-22 Brazil    Slovakia South … Europe        1      44       0       0
 8 1995-03-29 Brazil    Honduras South … North …       1      53       0       0
 9 1995-06-04 Brazil    Sweden   South … Europe        1       6       0       0
10 1995-06-06 Brazil    Japan    South … Asia          1      35       0       0
# … with 23,911 more rows, 16 more variables: home_team_score <dbl>,
#   away_team_score <dbl>, tournament <chr>, city <chr>, country <chr>,
#   neutral_location <lgl>, shoot_out <chr>, home_team_result <chr>,
#   home_team_goalkeeper_score <dbl>, away_team_goalkeeper_score <dbl>,
#   home_team_mean_defense_score <dbl>, home_team_mean_offense_score <dbl>,
#   home_team_mean_midfield_score <dbl>, away_team_mean_defense_score <dbl>,
#   away_team_mean_offense_score <dbl>, away_team_mean_midfield_score <dbl>, …
…
